{
    "defaultSeverity": "error",
    "extends": [
        "tslint:recommended"
    ],
    "jsRules": {},
    "rules": {
      "indent": [true, "spaces", 4],
      "interface-name": [true, "never-prefix"],
      "max-line-length": [true, 80]
    },
    "rulesDirectory": []
}
